%YAML 1.1
%TAG !u! tag:unity3d.com,2011:
--- !u!1045 &1
EditorBuildSettings:
  m_ObjectHideFlags: 0
  serializedVersion: 2
  m_Scenes:
  - enabled: 1
    path: Assets/Scenes/StartScene.unity
    guid: f89e79d5119ca5f4ba816de8ec397b52
  - enabled: 1
    path: Assets/Scenes/GameScene.unity
    guid: 2cda990e2423bbf4892e6590ba056729
  - enabled: 1
    path: Assets/Scenes/GameOverScene.unity
    guid: 1d40d7c5f5ec4ae46b9c5ed7caaac6bc
  m_configObjects: {}
